<center><h3>
Major: Applied Technology<br/></h3> 
<h4>Concentration: Applied IT Project Management Specialization</h5><br/>
------------------------------------------- <br/>
2017 Fall<br/>
Courses per quarter: 2<br/>
Course slots left: 0<br/>
Courses in this Quarter<br/>
IS 535<br/>
PM 430<br/>
------------------------------------------- <br/>
2016 Winter<br/>
Courses per quarter: 1<br/>
Course slots left: 0<br/>
Courses in this Quarter<br/>
IS 430<br/>
------------------------------------------- <br/>
2016 Spring<br/>
Courses per quarter: 1<br/>
Course slots left: 0<br/>
Courses in this Quarter<br/>
PM 556<br/>
------------------------------------------- <br/>
2016 Fall<br/>
Courses per quarter: 1<br/>
Course slots left: 0<br/>
Courses in this Quarter<br/>
IS 556<br/>
------------------------------------------- <br/>
2017 Winter<br/>
Courses per quarter: 1<br/>
Course slots left: 0<br/>
Courses in this Quarter<br/>
IS 500<br/>
------------------------------------------- <br/>
2017 Spring<br/>
Courses per quarter: 1<br/>
Course slots left: 0<br/>
Courses in this Quarter<br/>
PM 440<br/>
------------------------------------------- <br/>
2017 Fall<br/>
Courses per quarter: 1<br/>
Course slots left: 0<br/>
Courses in this Quarter<br/>
IS 440<br/>
------------------------------------------- <br/>
2018 Winter<br/>
Courses per quarter: 1<br/>
Course slots left: 0<br/>
Courses in this Quarter<br/>
PM 535<br/>
------------------------------------------- <br/>
2018 Spring<br/>
Courses per quarter: 1<br/>
Course slots left: 0<br/>
Courses in this Quarter<br/>
IS 535<br/>
------------------------------------------- <br/>
2018 Fall<br/>
Courses per quarter: 1<br/>
Course slots left: 0<br/>
Courses in this Quarter<br/>
PM 570<br/>
------------------------------------------- <br/>
2019 Winter<br/>
Courses per quarter: 1<br/>
Course slots left: 0<br/>
Courses in this Quarter<br/>
IS 570<br/></center>